dplyr-part1.utf8
…
We will explore dummy data that we have created to resemble web logs of a ecommerce company. You can download the data from here or import it directly using read_csv() from the readr package. We will use dplyr to answer a few questions we have about the above data:

what is the average order value by device types?

what is the average number of pages visited by purchasers and non-purchasers?

what is the average time on site for purchasers vs non-purchasers?

what is the average number of pages visited by purchasers and non-purchasers using mobile?

Data

ecom <- read_csv('data/web.csv')

## # A tibble: 1,000 x 11
##       id referrer device bouncers n_visit n_pages duration country       
##    <int> <chr>    <chr>  <chr>      <int>   <dbl>    <dbl> <chr>         
##  1     1 google   laptop true          10    1.00    693   Czech Republic
##  2     2 yahoo    tablet true           9    1.00    459   Yemen         
##  3     3 direct   laptop true           0    1.00    996   Brazil        
##  4     4 bing     tablet false          3   18.0     468   China         
##  5     5 yahoo    mobile true           9    1.00    955   Poland        
##  6     6 yahoo    laptop false          5    5.00    135   South Africa  
##  7     7 yahoo    mobile true          10    1.00     75.0 Bangladesh    
##  8     8 direct   mobile true          10    1.00    908   Indonesia     
##  9     9 bing     mobile false          3   19.0     209   Netherlands   
## 10    10 google   mobile true           6    1.00    208   Czech Republic
## # ... with 990 more rows, and 3 more variables: purchase <chr>,
## #   order_items <dbl>, order_value <dbl>
…
Step 1: Filter Purchasers

In order to compute the AOV, we must first separate the purchasers from non-purchasers. We will do this by filtering the data related to purchasers using the filter() function. It allows us to filter rows that meet a specific criteria/condition. The first argument is the name of the data frame and the rest of the arguments are expressions for filtering the data. Let us look at a few examples:

Select all visits from mobile

filter(ecom, device == "mobile")

## # A tibble: 344 x 11
##       id referrer device bouncers n_visit n_pages duration country       
##    <int> <chr>    <chr>  <chr>      <int>   <dbl>    <dbl> <chr>         
##  1     5 yahoo    mobile true           9    1.00    955   Poland        
##  2     7 yahoo    mobile true          10    1.00     75.0 Bangladesh    
##  3     8 direct   mobile true          10    1.00    908   Indonesia     
##  4     9 bing     mobile false          3   19.0     209   Netherlands   
##  5    10 google   mobile true           6    1.00    208   Czech Republic
##  6    13 direct   mobile false          9   14.0     406   Ireland       
##  7    15 yahoo    mobile false          7    1.00     19.0 France        
##  8    22 google   mobile true           5    1.00    147   Brazil        
##  9    23 bing     mobile false          0    7.00    196   Russia        
## 10    29 google   mobile true          10    1.00    338   Russia        
## # ... with 334 more rows, and 3 more variables: purchase <chr>,
## #   order_items <dbl>, order_value <dbl>

visits from mobile that converted

filter(ecom, device == "mobile", purchase == "true")

## # A tibble: 36 x 11
##       id referrer device bouncers n_visit n_pages duration country       
##    <int> <chr>    <chr>  <chr>      <int>   <dbl>    <dbl> <chr>         
##  1    13 direct   mobile false          9    14.0      406 Ireland       
##  2    41 bing     mobile false          4    20.0      440 Czech Republic
##  3    98 bing     mobile false          3    18.0      288 Portugal      
##  4   112 social   mobile false         10    11.0      242 Argentina     
##  5   125 yahoo    mobile false          6    14.0      322 China         
##  6   134 google   mobile false          1    18.0      252 Indonesia     
##  7   143 social   mobile false          7    16.0      352 Sweden        
##  8   156 direct   mobile false          4    18.0      324 China         
##  9   219 social   mobile false          1    20.0      520 United States 
## 10   227 yahoo    mobile false          0    13.0      351 United States 
## # ... with 26 more rows, and 3 more variables: purchase <chr>,
## #   order_items <dbl>, order_value <dbl>

from mobile & visited > 5 pages

filter(ecom, device == "mobile", n_pages > 5)

## # A tibble: 139 x 11
##       id referrer device bouncers n_visit n_pages duration country       
##    <int> <chr>    <chr>  <chr>      <int>   <dbl>    <dbl> <chr>         
##  1     9 bing     mobile false          3   19.0       209 Netherlands   
##  2    13 direct   mobile false          9   14.0       406 Ireland       
##  3    23 bing     mobile false          0    7.00      196 Russia        
##  4    30 yahoo    mobile false          8    9.00      225 Colombia      
##  5    41 bing     mobile false          4   20.0       440 Czech Republic
##  6    42 direct   mobile false          1   13.0       234 Indonesia     
##  7    89 direct   mobile false          4    8.00      144 Ecuador       
##  8    92 google   mobile false          5    8.00      192 Indonesia     
##  9    98 bing     mobile false          3   18.0       288 Portugal      
## 10   112 social   mobile false         10   11.0       242 Argentina     
## # ... with 129 more rows, and 3 more variables: purchase <chr>,
## #   order_items <dbl>, order_value <dbl>

Case Study: visits that converted

filter(ecom, purchase == "true")

## # A tibble: 103 x 11
##       id referrer device bouncers n_visit n_pages duration country       
##    <int> <chr>    <chr>  <chr>      <int>   <dbl>    <dbl> <chr>         
##  1     4 bing     tablet false          3    18.0      468 China         
##  2    13 direct   mobile false          9    14.0      406 Ireland       
##  3    17 bing     tablet false          5    16.0      368 Peru          
##  4    19 social   tablet false          7    10.0      290 Colombia      
##  5    27 direct   tablet false          2    19.0      342 Japan         
##  6    34 social   tablet false          9    20.0      420 Indonesia     
##  7    41 bing     mobile false          4    20.0      440 Czech Republic
##  8    94 yahoo    tablet false          2    16.0      480 China         
##  9    98 bing     mobile false          3    18.0      288 Portugal      
## 10   101 yahoo    tablet false          2    14.0      364 Poland        
## # ... with 93 more rows, and 3 more variables: purchase <chr>,
## #   order_items <dbl>, order_value <dbl>

Step 2: Select relevant columns

After filtering the data, we need to select relevent variables to compute the AOV. Remember, we do not need all the columns in the data to compute a required metric (in our case, AOV). The select() function allows us to select a subset of columns. The first argument is the name of the data frame and the subsequent arguments specify the columns by name or position. Let us look at a few examples:

Select device and purchase columns

select(ecom, device, purchase)

## # A tibble: 1,000 x 2
##    device purchase
##    <chr>  <chr>   
##  1 laptop false   
##  2 tablet false   
##  3 laptop false   
##  4 tablet true    
##  5 mobile false   
##  6 laptop false   
##  7 mobile false   
##  8 mobile false   
##  9 mobile false   
## 10 mobile false   
## # ... with 990 more rows

all columns from device to purchase

select(ecom, device:purchase)

## # A tibble: 1,000 x 7
##    device bouncers n_visit n_pages duration country        purchase
##    <chr>  <chr>      <int>   <dbl>    <dbl> <chr>          <chr>   
##  1 laptop true          10    1.00    693   Czech Republic false   
##  2 tablet true           9    1.00    459   Yemen          false   
##  3 laptop true           0    1.00    996   Brazil         false   
##  4 tablet false          3   18.0     468   China          true    
##  5 mobile true           9    1.00    955   Poland         false   
##  6 laptop false          5    5.00    135   South Africa   false   
##  7 mobile true          10    1.00     75.0 Bangladesh     false   
##  8 mobile true          10    1.00    908   Indonesia      false   
##  9 mobile false          3   19.0     209   Netherlands    false   
## 10 mobile true           6    1.00    208   Czech Republic false   
## # ... with 990 more rows

all columns excluding id and country

select(ecom, -id, -country)

## # A tibble: 1,000 x 9
##    referrer device bouncers n_visit n_pages duration purchase order_items
##    <chr>    <chr>  <chr>      <int>   <dbl>    <dbl> <chr>          <dbl>
##  1 google   laptop true          10    1.00    693   false           0   
##  2 yahoo    tablet true           9    1.00    459   false           0   
##  3 direct   laptop true           0    1.00    996   false           0   
##  4 bing     tablet false          3   18.0     468   true            6.00
##  5 yahoo    mobile true           9    1.00    955   false           0   
##  6 yahoo    laptop false          5    5.00    135   false           0   
##  7 yahoo    mobile true          10    1.00     75.0 false           0   
##  8 direct   mobile true          10    1.00    908   false           0   
##  9 bing     mobile false          3   19.0     209   false           0   
## 10 google   mobile true           6    1.00    208   false           0   
## # ... with 990 more rows, and 1 more variable: order_value <dbl>

Case Study: Select

For our case study, we need to select the columns order value and order items to calculate the AOV. We also need to select the device column as we are computing the AOV for different devices.

select(ecom, device, order_value, order_items)

## # A tibble: 1,000 x 3
##    device order_value order_items
##    <chr>        <dbl>       <dbl>
##  1 laptop           0        0   
##  2 tablet           0        0   
##  3 laptop           0        0   
##  4 tablet         434        6.00
##  5 mobile           0        0   
##  6 laptop           0        0   
##  7 mobile           0        0   
##  8 mobile           0        0   
##  9 mobile           0        0   
## 10 mobile           0        0   
## # ... with 990 more rows

Case Study: Select

But we want the above data only for purchasers. We will combine filter() and select() functions to extract data related to purchasers.

ecom1 <- filter(ecom, purchase == "true")
ecom2 <- select(ecom1, device, order_value, order_items)
ecom2

## # A tibble: 103 x 3
##    device order_value order_items
##    <chr>        <dbl>       <dbl>
##  1 tablet         434        6.00
##  2 mobile         651        3.00
##  3 tablet        1049        6.00
##  4 tablet        1304        9.00
##  5 tablet         622        5.00
##  6 tablet        1613        7.00
##  7 mobile         184        3.00
##  8 tablet         286        9.00
##  9 mobile         764        6.00
## 10 tablet        1667        6.00
## # ... with 93 more rows

Step 3: Group data by devices

Since we want to compute the AOV for each device, we need to compute the total order value and total order items for each device. To achieve this, we will group the selected variables by device type. Using the group_by() function, we will group our case study data by device types. The first argument is the name of the data frame and the second argument is the name of the column based on which the data will be split. Let us look at a few examples:

Group data by referrer type

group_by(ecom, referrer)

## # A tibble: 1,000 x 11
## # Groups:   referrer [5]
##       id referrer device bouncers n_visit n_pages duration country       
##    <int> <chr>    <chr>  <chr>      <int>   <dbl>    <dbl> <chr>         
##  1     1 google   laptop true          10    1.00    693   Czech Republic
##  2     2 yahoo    tablet true           9    1.00    459   Yemen         
##  3     3 direct   laptop true           0    1.00    996   Brazil        
##  4     4 bing     tablet false          3   18.0     468   China         
##  5     5 yahoo    mobile true           9    1.00    955   Poland        
##  6     6 yahoo    laptop false          5    5.00    135   South Africa  
##  7     7 yahoo    mobile true          10    1.00     75.0 Bangladesh    
##  8     8 direct   mobile true          10    1.00    908   Indonesia     
##  9     9 bing     mobile false          3   19.0     209   Netherlands   
## 10    10 google   mobile true           6    1.00    208   Czech Republic
## # ... with 990 more rows, and 3 more variables: purchase <chr>,
## #   order_items <dbl>, order_value <dbl>

Case Study: Group

In the second line in the previous output, you can observe Groups: referrer [5]. The data is split into 5 groups as the referrer variable has 5 distinct values. For our case study, we need to group the data by device type.

ecom3 <- group_by(ecom2, device)
ecom3

## # A tibble: 103 x 3
## # Groups:   device [3]
##    device order_value order_items
##    <chr>        <dbl>       <dbl>
##  1 tablet         434        6.00
##  2 mobile         651        3.00
##  3 tablet        1049        6.00
##  4 tablet        1304        9.00
##  5 tablet         622        5.00
##  6 tablet        1613        7.00
##  7 mobile         184        3.00
##  8 tablet         286        9.00
##  9 mobile         764        6.00
## 10 tablet        1667        6.00
## # ... with 93 more rows
…
